{
  "items": [
    {
      "id": "5069b8ca-2b7f-4e64-84ae-039ed2bff2f5",
      "title": "Who's Getting Rich Off Your Attention?",
      "subtitle": null,
      "date_published": "2025-09-24T15:17:02",
      "author": "kyla scanlon",
      "publication_id": null,
      "content_url": "https://kyla.substack.com/p/whos-getting-rich-off-your-attention",
      "storage_url": null
    },
    {
      "id": "1b048464-6d7e-4e6d-8137-2af0ab3fd86f",
      "title": "6 Economic Lessons from Books About Power, Propaganda, and Decline",
      "subtitle": null,
      "date_published": "2025-09-18T14:14:38",
      "author": "kyla scanlon",
      "publication_id": null,
      "content_url": "https://kyla.substack.com/p/6-economic-lessons-from-books-about",
      "storage_url": null
    },
    {
      "id": "20cef195-ab22-428c-9e2b-1196193f8c8e",
      "title": "Cleveland Fed President Beth Hammack on the Risks Markets Are Missing Right Now",
      "subtitle": null,
      "date_published": "2025-09-03T13:51:13",
      "author": "kyla scanlon",
      "publication_id": null,
      "content_url": "https://kyla.substack.com/p/cleveland-fed-president-beth-hammack",
      "storage_url": null
    }
  ],
  "total": 20,
  "skip": 0,
  "limit": 3,
  "has_more": true
}